method name, index construction time (s), index size (MB)
BFS,<0.010000000000000,0.39
LI+OTH+EXTv2-b=20-k=1320,15.76,213.29
LI-k=1320,13.93,211.05
LI-k=5000,31.19,693.75


BFS_queryset-0,BFS_queryset-1,BFS_queryset-2,LI+OTH+EXTv2-b=20-k=1320_queryset-0,LI+OTH+EXTv2-b=20-k=1320_queryset-1,LI+OTH+EXTv2-b=20-k=1320_queryset-2,LI-k=1320_queryset-0,LI-k=1320_queryset-1,LI-k=1320_queryset-2,LI-k=5000_queryset-0,LI-k=5000_queryset-1,LI-k=5000_queryset-2,

,BFS-0,BFS-1,BFS-2,LI+OTH+EXTv2-b=20-k=1320-0,LI+OTH+EXTv2-b=20-k=1320-1,LI+OTH+EXTv2-b=20-k=1320-2,LI-k=1320-0,LI-k=1320-1,LI-k=1320-2,LI-k=5000-0,LI-k=5000-1,LI-k=5000-2
mean-true,nan,nan,nan,nan,nan,nan,nan,nan,nan,nan,nan,nan
mean-false,nan,nan,nan,nan,nan,nan,nan,nan,nan,nan,nan,nan
sd-true,nan,nan,nan,nan,nan,nan,nan,nan,nan,nan,nan,nan
sd-false,nan,nan,nan,nan,nan,nan,nan,nan,nan,nan,nan,nan

LI+OTH+EXTv2-b=20-k=1320-su-true-0,LI+OTH+EXTv2-b=20-k=1320-su-false-0,LI+OTH+EXTv2-b=20-k=1320-su-true-1,LI+OTH+EXTv2-b=20-k=1320-su-false-1,LI+OTH+EXTv2-b=20-k=1320-su-true-2,LI+OTH+EXTv2-b=20-k=1320-su-false-2,LI-k=1320-su-true-0,LI-k=1320-su-false-0,LI-k=1320-su-true-1,LI-k=1320-su-false-1,LI-k=1320-su-true-2,LI-k=1320-su-false-2,LI-k=5000-su-true-0,LI-k=5000-su-false-0,LI-k=5000-su-true-1,LI-k=5000-su-false-1,LI-k=5000-su-true-2,LI-k=5000-su-false-2
na,na,na,na,na,na,na,na,na,na,na,na,na,na,na,na,na,na